<svg width="50" height="50" viewBox="0 0 50 50" fill="none" xmlns="http://www.w3.org/2000/svg">
<g filter="url(#filter0_ddd)">
<circle cx="25" cy="24" r="22" fill="white"/>
</g>
<path d="M32 16H31.492L29.308 13.168C29.0265 12.8058 28.6663 12.5124 28.2547 12.3101C27.843 12.1077 27.3907 12.0017 26.932 12H23.068C22.6093 12.0017 22.157 12.1077 21.7453 12.3101C21.3337 12.5124 20.9735 12.8058 20.692 13.168L18.508 16H18C16.6744 16.0016 15.4036 16.5289 14.4662 17.4662C13.5289 18.4036 13.0016 19.6744 13 21V31C13.0016 32.3256 13.5289 33.5964 14.4662 34.5338C15.4036 35.4711 16.6744 35.9984 18 36H32C33.3256 35.9984 34.5964 35.4711 35.5338 34.5338C36.4711 33.5964 36.9984 32.3256 37 31V21C36.9984 19.6744 36.4711 18.4036 35.5338 17.4662C34.5964 16.5289 33.3256 16.0016 32 16ZM22.276 14.39C22.3697 14.2691 22.4897 14.1711 22.6269 14.1035C22.7642 14.0359 22.915 14.0005 23.068 14H26.932C27.085 14.0007 27.2357 14.0361 27.373 14.1037C27.5102 14.1713 27.6302 14.2692 27.724 14.39L28.966 16H21.034L22.276 14.39ZM35 31C35 31.7956 34.6839 32.5587 34.1213 33.1213C33.5587 33.6839 32.7956 34 32 34H18C17.2044 34 16.4413 33.6839 15.8787 33.1213C15.3161 32.5587 15 31.7956 15 31V21C15 20.2044 15.3161 19.4413 15.8787 18.8787C16.4413 18.3161 17.2044 18 18 18H32C32.7956 18 33.5587 18.3161 34.1213 18.8787C34.6839 19.4413 35 20.2044 35 21V31Z" fill="#E15C30"/>
<path d="M25 20C23.8133 20 22.6533 20.3519 21.6666 21.0112C20.6799 21.6705 19.9109 22.6075 19.4567 23.7039C19.0026 24.8003 18.8838 26.0067 19.1153 27.1705C19.3468 28.3344 19.9182 29.4035 20.7574 30.2426C21.5965 31.0818 22.6656 31.6532 23.8295 31.8847C24.9933 32.1162 26.1997 31.9974 27.2961 31.5433C28.3925 31.0892 29.3295 30.3201 29.9888 29.3334C30.6481 28.3467 31 27.1867 31 26C30.9984 24.4092 30.3658 22.884 29.2409 21.7591C28.116 20.6342 26.5908 20.0016 25 20ZM25 30C24.2089 30 23.4355 29.7654 22.7777 29.3259C22.1199 28.8864 21.6072 28.2616 21.3045 27.5307C21.0017 26.7998 20.9225 25.9956 21.0769 25.2196C21.2312 24.4437 21.6122 23.731 22.1716 23.1716C22.731 22.6122 23.4437 22.2312 24.2196 22.0769C24.9956 21.9225 25.7998 22.0017 26.5307 22.3045C27.2616 22.6072 27.8864 23.1199 28.3259 23.7777C28.7654 24.4355 29 25.2089 29 26C29 27.0609 28.5786 28.0783 27.8284 28.8284C27.0783 29.5786 26.0609 30 25 30Z" fill="#E15C30"/>
<defs>
<filter id="filter0_ddd" x="0" y="0" width="50" height="50" filterUnits="userSpaceOnUse" color-interpolation-filters="sRGB">
<feFlood flood-opacity="0" result="BackgroundImageFix"/>
<feColorMatrix in="SourceAlpha" type="matrix" values="0 0 0 0 0 0 0 0 0 0 0 0 0 0 0 0 0 0 127 0" result="hardAlpha"/>
<feOffset dy="1"/>
<feGaussianBlur stdDeviation="1.5"/>
<feColorMatrix type="matrix" values="0 0 0 0 0 0 0 0 0 0 0 0 0 0 0 0 0 0 0.2 0"/>
<feBlend mode="normal" in2="BackgroundImageFix" result="effect1_dropShadow"/>
<feColorMatrix in="SourceAlpha" type="matrix" values="0 0 0 0 0 0 0 0 0 0 0 0 0 0 0 0 0 0 127 0" result="hardAlpha"/>
<feOffset dy="2"/>
<feGaussianBlur stdDeviation="0.5"/>
<feColorMatrix type="matrix" values="0 0 0 0 0 0 0 0 0 0 0 0 0 0 0 0 0 0 0.12 0"/>
<feBlend mode="normal" in2="effect1_dropShadow" result="effect2_dropShadow"/>
<feColorMatrix in="SourceAlpha" type="matrix" values="0 0 0 0 0 0 0 0 0 0 0 0 0 0 0 0 0 0 127 0" result="hardAlpha"/>
<feOffset dy="1"/>
<feGaussianBlur stdDeviation="0.5"/>
<feColorMatrix type="matrix" values="0 0 0 0 0 0 0 0 0 0 0 0 0 0 0 0 0 0 0.14 0"/>
<feBlend mode="normal" in2="effect2_dropShadow" result="effect3_dropShadow"/>
<feBlend mode="normal" in="SourceGraphic" in2="effect3_dropShadow" result="shape"/>
</filter>
</defs>
</svg>
