<svg width="32" height="32" viewBox="0 0 32 32" fill="none" xmlns="http://www.w3.org/2000/svg">
<path d="M10 17.3333C8.81331 17.3333 7.65327 16.9814 6.66658 16.3222C5.67988 15.6629 4.91085 14.7258 4.45672 13.6294C4.0026 12.5331 3.88378 11.3267 4.11529 10.1628C4.3468 8.99891 4.91824 7.92981 5.75736 7.0907C6.59647 6.25158 7.66557 5.68014 8.82946 5.44862C9.99334 5.21711 11.1997 5.33593 12.2961 5.79006C13.3925 6.24418 14.3295 7.01322 14.9888 7.99991C15.6481 8.98661 16 10.1466 16 11.3333C15.9982 12.9241 15.3655 14.4492 14.2407 15.574C13.1159 16.6989 11.5908 17.3316 10 17.3333ZM10 8C9.34073 8 8.69626 8.1955 8.1481 8.56177C7.59994 8.92804 7.17269 9.44864 6.9204 10.0577C6.66811 10.6668 6.6021 11.337 6.73072 11.9836C6.85933 12.6302 7.1768 13.2242 7.64298 13.6904C8.10915 14.1565 8.7031 14.474 9.3497 14.6026C9.9963 14.7312 10.6665 14.6652 11.2756 14.4129C11.8847 14.1606 12.4053 13.7334 12.7716 13.1852C13.1378 12.6371 13.3333 11.9926 13.3333 11.3333C13.3333 10.4493 12.9821 9.60143 12.357 8.97631C11.7319 8.35119 10.8841 8 10 8ZM20 30.6667V30C20 27.3478 18.9464 24.8043 17.0711 22.9289C15.1957 21.0536 12.6522 20 10 20C7.34784 20 4.8043 21.0536 2.92893 22.9289C1.05357 24.8043 0 27.3478 0 30L0 30.6667C0 31.0203 0.140476 31.3594 0.390524 31.6095C0.640573 31.8595 0.979711 32 1.33333 32C1.68696 32 2.02609 31.8595 2.27614 31.6095C2.52619 31.3594 2.66667 31.0203 2.66667 30.6667V30C2.66667 28.0551 3.43928 26.1898 4.81455 24.8146C6.18982 23.4393 8.05508 22.6667 10 22.6667C11.9449 22.6667 13.8102 23.4393 15.1855 24.8146C16.5607 26.1898 17.3333 28.0551 17.3333 30V30.6667C17.3333 31.0203 17.4738 31.3594 17.7239 31.6095C17.9739 31.8595 18.313 32 18.6667 32C19.0203 32 19.3594 31.8595 19.6095 31.6095C19.8595 31.3594 20 31.0203 20 30.6667ZM32 24C32 22.1982 31.4784 20.435 30.4983 18.9232C29.5182 17.4113 28.1214 16.2154 26.4766 15.48C24.8318 14.7445 23.0093 14.5008 21.229 14.7783C19.4487 15.0559 17.7869 15.8427 16.444 17.044C16.3117 17.1603 16.2037 17.3016 16.1263 17.4598C16.049 17.6181 16.0037 17.79 15.9932 17.9659C15.9826 18.1417 16.0071 18.3179 16.065 18.4842C16.1229 18.6505 16.2133 18.8037 16.3307 18.935C16.4482 19.0662 16.5906 19.1728 16.7495 19.2487C16.9084 19.3246 17.0808 19.3683 17.2568 19.3772C17.4327 19.3861 17.6086 19.3601 17.7744 19.3006C17.9402 19.2411 18.0925 19.1494 18.2227 19.0307C19.1819 18.1728 20.369 17.611 21.6405 17.4129C22.9121 17.2148 24.2138 17.389 25.3885 17.9144C26.5633 18.4398 27.5609 19.294 28.2608 20.3739C28.9608 21.4537 29.3333 22.7131 29.3333 24C29.3333 24.3536 29.4738 24.6928 29.7239 24.9428C29.9739 25.1929 30.313 25.3333 30.6667 25.3333C31.0203 25.3333 31.3594 25.1929 31.6095 24.9428C31.8595 24.6928 32 24.3536 32 24ZM23.3333 12C22.1466 12 20.9866 11.6481 19.9999 10.9888C19.0132 10.3295 18.2442 9.39246 17.7901 8.2961C17.3359 7.19975 17.2171 5.99335 17.4486 4.82946C17.6801 3.66557 18.2516 2.59648 19.0907 1.75736C19.9298 0.918247 20.9989 0.346802 22.1628 0.115291C23.3267 -0.11622 24.5331 0.00259972 25.6294 0.456726C26.7258 0.910851 27.6629 1.67989 28.3222 2.66658C28.9814 3.65328 29.3333 4.81331 29.3333 6C29.3316 7.59076 28.6989 9.11586 27.574 10.2407C26.4492 11.3655 24.9241 11.9982 23.3333 12ZM23.3333 2.66667C22.6741 2.66667 22.0296 2.86217 21.4814 3.22844C20.9333 3.59471 20.506 4.1153 20.2537 4.72439C20.0014 5.33348 19.9354 6.0037 20.064 6.6503C20.1927 7.29691 20.5101 7.89085 20.9763 8.35703C21.4425 8.8232 22.0364 9.14067 22.683 9.26929C23.3296 9.3979 23.9999 9.33189 24.6089 9.0796C25.218 8.82731 25.7386 8.40007 26.1049 7.8519C26.4712 7.30374 26.6667 6.65927 26.6667 6C26.6667 5.11595 26.3155 4.2681 25.6904 3.64298C25.0652 3.01786 24.2174 2.66667 23.3333 2.66667Z" fill="#095571"/>
</svg>
