<svg width="800" height="450" viewBox="0 0 1280 956" fill="none" xmlns="http://www.w3.org/2000/svg">
<path d="M340.317 789.835H292.773C280.446 789.835 268.674 784.736 260.236 775.752C222.729 735.807 122.967 619.861 152.442 545.397C188.524 454.253 267.279 481.448 303.381 533.725C332.311 575.618 352.329 714.81 359.144 768.476C360.584 779.81 351.745 789.835 340.317 789.835Z" fill="#E15C30"/>
<path d="M325.478 691.939C325.007 690.091 323.128 688.975 321.279 689.446C319.436 689.917 318.319 691.795 318.79 693.644C318.872 693.965 326.934 726.226 316.383 740.868C313.854 744.376 310.466 746.499 306.084 747.328L284.601 688.086C291.224 686.678 296.6 683.212 300.625 677.738C315.776 657.111 305.967 614.603 305.543 612.803C305.103 610.947 303.245 609.801 301.388 610.236C299.535 610.676 298.383 612.532 298.824 614.385C298.92 614.795 308.347 655.563 295.061 673.654C291.861 678.007 287.64 680.596 282.22 681.522L254.096 603.946C257.039 601.605 262.32 596.758 266.877 589.138C272.92 579.039 278.81 561.918 272.554 537.713C272.073 535.869 270.19 534.757 268.345 535.233C266.502 535.712 265.39 537.591 265.869 539.439C270.378 556.883 268.782 572.318 261.126 585.312C257.895 590.791 254.205 594.666 251.585 597.024L214.471 494.66C213.821 492.868 211.842 491.944 210.049 492.593C208.257 493.243 207.328 495.222 207.978 497.013L245.171 599.583C228.843 600.08 214.929 592.81 203.775 577.911C194.465 565.474 190.655 552.145 190.616 552.01C190.106 550.179 188.2 549.107 186.364 549.616C184.529 550.132 183.456 552.031 183.966 553.867C184.132 554.455 188.095 568.413 198.12 581.873C210.184 598.079 225.838 606.505 243.706 606.505C245.001 606.505 246.309 606.452 247.63 606.365L275.026 681.927C241.125 680.985 214.388 643.721 214.048 643.237C212.948 641.677 210.799 641.302 209.238 642.4C207.678 643.495 207.303 645.647 208.401 647.208C209.635 648.961 238.16 688.852 276.247 688.852C276.674 688.852 277.101 688.84 277.528 688.831L298.912 747.803C271.791 747.633 257.811 728.179 257.202 727.306C256.11 725.746 253.966 725.359 252.4 726.444C250.835 727.534 250.447 729.683 251.533 731.248C252.231 732.25 268.198 754.716 299.252 754.716C299.957 754.716 300.677 754.702 301.405 754.677L310.837 780.686C311.343 782.09 312.669 782.962 314.08 782.962C314.473 782.962 314.87 782.896 315.259 782.756C317.05 782.107 317.974 780.128 317.325 778.336L308.456 753.879C314.08 752.575 318.619 749.567 321.982 744.9C334.4 727.678 325.849 693.39 325.478 691.939L325.478 691.939Z" fill="#A82B02"/>
<path d="M917.493 733.008C904.222 678.168 888.327 598.363 901.465 574.798C922.091 537.804 955.164 583.411 976.6 557.506C998.048 531.606 938.301 399.683 985.999 358.21C1025.07 324.23 1039.9 380.633 1054.27 349.132C1068.65 317.631 1048.85 289.471 1095.84 250.639C1142.84 211.806 1190.78 241.264 1194.96 280.848C1199.14 320.431 1172.55 340.52 1159.8 330.952C1147.03 321.386 1134.74 322.335 1128.2 332.301C1122.95 340.287 1128.42 349.601 1146.77 360.501C1191.79 387.248 1174.08 470.638 1144.78 496.006C1115.47 521.375 1063.75 565.722 1078.95 578.39C1090.4 587.927 1039.33 685.404 1013.38 733.008H917.493H917.493Z" fill="#C6A300"/>
<path d="M1173.66 261.009C1172.39 259.469 1170.11 259.244 1168.58 260.511L1154.18 272.334C1146.47 270.081 1136.92 271.323 1125.66 276.059L1125.65 276.065C1115.55 280.322 1108.41 287.828 1103.16 297.327L1101.11 267.428C1100.97 265.441 1099.25 263.939 1097.27 264.076C1095.27 264.212 1093.77 265.934 1093.9 267.921L1096.92 311.835C1092.23 325.776 1089.74 341.949 1087.29 357.87C1085.65 368.469 1083.96 379.428 1081.66 389.529C1080.84 393.131 1079.75 396.877 1078.41 400.754C1078.38 400.834 1078.35 400.916 1078.34 400.998C1072.88 416.75 1063.44 434.734 1052.06 454.597L1019.14 381.133C1018.32 379.315 1016.19 378.5 1014.38 379.315C1012.55 380.13 1011.74 382.265 1012.55 384.082L1047.6 462.304C1043.67 469.065 1039.54 476.021 1035.31 483.174C1020.44 508.269 1005.05 534.221 991.757 561.494C979.793 586.013 971.023 622.38 965.616 669.783L931.091 632.558C929.736 631.098 927.45 631.011 925.998 632.366C924.534 633.722 924.45 636.005 925.805 637.466L964.587 679.289C964.14 683.771 963.704 688.33 963.305 692.998C962.085 707.266 961.34 720.993 960.902 733.008H969.02C970.916 686.194 976.762 608.693 998.241 564.659C1009.59 541.378 1022.53 518.982 1035.35 497.253L1115.88 472.866C1116.04 472.821 1116.19 472.765 1116.32 472.704C1117.95 471.972 1118.82 470.124 1118.29 468.367C1117.71 466.458 1115.7 465.381 1113.79 465.961L1040.8 488.069C1041.04 487.663 1041.27 487.254 1041.51 486.853C1059.89 455.84 1076.18 428.348 1084.58 404.965L1134.31 390.509C1134.47 390.462 1134.62 390.404 1134.77 390.336C1136.39 389.611 1137.27 387.787 1136.76 386.037C1136.21 384.124 1134.2 383.023 1132.29 383.581L1087.26 396.669C1087.81 394.793 1088.29 392.944 1088.7 391.129C1091.05 380.779 1092.77 369.693 1094.42 358.971C1096.92 342.759 1099.35 326.976 1103.78 313.804C1103.92 313.515 1104.03 313.207 1104.09 312.88C1108.57 299.988 1115.04 289.699 1125.51 284.114L1139.8 310.354C1140.71 312.02 1142.74 312.685 1144.45 311.922C1144.53 311.885 1144.61 311.843 1144.7 311.797C1146.45 310.844 1147.09 308.654 1146.14 306.904L1132.18 281.267C1142.5 277.566 1150.64 277.517 1156.37 281.156C1165.31 286.814 1165.97 299.933 1165.97 300.057C1166.05 302.047 1167.72 303.601 1169.72 303.526C1171.7 303.453 1173.26 301.777 1173.19 299.787C1173.16 299.118 1172.45 283.765 1161.33 275.799L1173.16 266.086C1174.7 264.822 1174.92 262.548 1173.66 261.009L1173.66 261.009Z" fill="#231F20"/>
<path d="M908.118 203.165C879.981 180.738 844.077 168.792 803.71 167.86L803.697 167.843H802.911C799.935 167.785 796.923 167.78 793.887 167.843H731.624L755.298 171.719C750.689 172.532 746.055 173.458 741.386 174.526C691.718 185.874 654.359 217.771 633.348 266.768C618.801 300.688 617.397 331.3 617.284 334.681C616.945 344.991 620.367 354.55 626.305 362.05C619.302 368.003 592.854 377.937 592.854 377.937C592.854 377.937 637.529 380.84 659.191 377.961C681.498 374.996 700.299 360.106 701.049 337.456C701.07 336.773 703.962 269.019 760.052 256.202C800.238 247.022 834.266 251.454 855.884 268.681C873.715 282.887 882.751 305.561 882.751 336.072C882.763 371.62 838.815 405.093 800.056 434.625C762.943 462.893 730.898 487.303 722.273 522.274C708.269 579.061 711.095 643.098 711.216 645.796C711.579 653.485 713.998 660.589 717.906 666.609C714.313 671.552 690.153 677.842 688.117 685.654L753.035 685.701C753.689 685.701 754.354 685.684 755.007 685.654C778.112 684.59 795.98 664.996 794.939 641.898C794.915 641.436 793.258 602.207 799.512 562.977C801.919 547.961 809.734 534.351 821.347 524.527C830.71 516.607 841.948 508.046 850.851 501.268C899.687 464.059 966.571 413.108 966.559 336.062C966.559 280.388 945.801 233.191 908.118 203.165Z" fill="#E15C30"/>
<path d="M724.56 701.96C716.128 700.387 698.6 698.782 682.946 703.507L684.956 807.38C684.956 807.38 712.898 809.934 728.661 807.764C730.112 807.563 731.576 807.402 733.04 807.336C755.262 806.294 772.948 787.957 772.948 765.491V745.348C772.948 724.081 757.089 706.516 736.548 703.817C732.544 703.289 728.54 702.705 724.56 701.96Z" fill="#E15C30"/>
<path d="M688.118 685.701C665.881 685.701 647.349 668.235 646.294 645.796C646.167 643.098 643.346 579.061 657.352 522.274C665.981 487.303 698.025 462.893 735.133 434.625C773.892 405.093 817.84 371.62 817.828 336.072C817.828 305.561 808.792 282.887 790.961 268.681C769.343 251.454 735.315 247.022 695.133 256.202C639.039 269.019 636.149 336.773 636.127 337.456C635.376 360.106 616.771 377.961 594.273 377.961C593.801 377.961 593.33 377.952 592.855 377.937C569.728 377.171 551.598 357.804 552.366 334.681C552.474 331.301 553.878 300.688 568.425 266.768C589.436 217.771 626.795 185.874 676.458 174.526C742.016 159.545 801.219 169.719 843.195 203.165C880.877 233.191 901.636 280.388 901.636 336.062C901.648 413.108 834.764 464.059 785.928 501.268C777.025 508.046 765.787 516.607 756.424 524.527C744.811 534.351 736.996 547.961 734.589 562.977C728.335 602.207 729.992 641.436 730.016 641.898C731.057 664.996 713.189 684.59 690.084 685.654C689.426 685.684 688.772 685.701 688.118 685.701Z" fill="#FED400"/>
<path d="M684.955 807.38C661.811 807.38 643.054 788.628 643.054 765.491V745.348C643.054 722.216 661.811 703.46 684.955 703.46C708.1 703.46 726.858 722.216 726.858 745.348V765.491C726.858 788.628 708.1 807.38 684.955 807.38Z" fill="#FF8D5C"/>
<path d="M844.787 221.51V217.127C844.46 216.698 844.119 216.256 843.751 215.792V221.104C844.115 221.245 844.459 221.38 844.787 221.51Z" fill="#FFAE63"/>
<path d="M845.827 221.923V218.522C845.508 218.084 845.162 217.62 844.791 217.133V221.511C845.157 221.656 845.507 221.795 845.827 221.923Z" fill="#FFAD63"/>
<path d="M846.868 222.343V219.985C846.559 219.539 846.214 219.053 845.832 218.529V221.925C846.213 222.077 846.555 222.216 846.868 222.343Z" fill="#FFAD63"/>
<path d="M847.896 222.766V221.515C847.612 221.077 847.266 220.559 846.86 219.974V222.34C847.261 222.504 847.609 222.647 847.896 222.766Z" fill="#FFAD63"/>
<path d="M848.936 223.206V223.2C848.916 223.164 848.579 222.567 847.9 221.522V222.768C848.566 223.045 848.921 223.199 848.936 223.206Z" fill="#FFAD63"/>
<path d="M848.932 223.204V223.191L848.929 223.187V223.203L848.932 223.204Z" fill="#FFAD63"/>
<path d="M1022.53 799.085H915.473L912.51 774.051C912.594 773.572 912.643 773.079 912.582 772.57L907.332 728.283H1014.14L1022.53 799.085H1022.53ZM1012.9 717.909H906.098L897.703 647.108H1004.51L1012.9 717.909ZM1003.29 636.738H896.481L888.074 565.932H994.878L1003.29 636.738ZM993.656 555.562H886.852L878.445 484.76H985.261L993.656 555.562ZM981.729 454.981L984.027 474.387H877.211L868.815 403.585H975.886L981.789 453.373C981.692 453.895 981.656 454.441 981.729 454.981H981.729ZM974.712 393.794H867.654L859.186 322.411H966.257L974.712 393.794ZM965.083 312.62H858.037L849.569 241.238H956.627L965.083 312.62ZM1031.58 839.601H1031.68C1034.59 839.635 1036.88 837.099 1036.53 834.204L962.857 210.621C962.507 207.736 959.724 205.739 956.809 206.444C954.486 207.008 952.877 209.604 953.156 211.979L955.466 231.446H848.396L845.952 210.827C845.674 208.445 843.484 206.298 841.077 206.3C838.089 206.304 835.863 208.896 836.202 211.774L909.812 834.139C910.102 836.554 912.135 838.38 914.566 838.402H914.675C917.578 838.42 919.84 835.891 919.502 833.005L916.635 808.875H1023.71L1026.84 835.338C1027.12 837.748 1029.15 839.57 1031.58 839.6V839.601Z" fill="#F4EDD9"/>
<path d="M949.721 469.627C949.902 470.076 950.253 470.489 950.846 470.817C953.459 472.242 969.088 468.672 972.645 467.835C974.508 470.83 975.754 473.432 973.54 474.596C969.04 476.945 942.487 476.213 942.886 473.659C942.995 472.939 946.237 471.292 949.721 469.627H949.721Z" fill="#614CD4"/>
<path d="M972.45 451.812L956.095 452.221C957.571 459.112 958.417 463.987 957.934 464.71C957.546 465.298 953.675 467.739 949.72 469.627C949.901 470.076 950.252 470.489 950.845 470.817C953.458 472.242 969.087 468.672 972.644 467.835C972.535 467.661 972.426 467.487 972.317 467.312C971.652 466.27 971.881 459.867 972.45 451.812H972.45Z" fill="#FF6161"/>
<path d="M875.046 390.741C875.228 391.191 875.579 391.604 876.171 391.928C878.784 393.357 894.413 389.787 897.97 388.946C899.833 391.942 901.079 394.547 898.853 395.709C894.365 398.06 867.812 397.328 868.211 394.773C868.332 394.053 871.562 392.405 875.046 390.741H875.046Z" fill="#614CD4"/>
<path d="M897.776 372.925L881.421 373.338C882.897 380.228 883.744 385.099 883.26 385.825C882.873 386.411 879.002 388.856 875.046 390.741C875.227 391.191 875.578 391.604 876.171 391.928C878.784 393.357 894.413 389.787 897.97 388.946C897.861 388.773 897.752 388.6 897.643 388.425C896.978 387.385 897.208 380.982 897.776 372.925Z" fill="#FF6161"/>
<path d="M928.684 160.628C914.833 158.318 906.946 207.4 900.486 212.88C894.014 218.361 854.324 194.519 845.759 198.683C837.182 202.847 853.912 229.446 862.284 234.954C871.768 241.184 885.667 250.243 909.994 245.887C934.309 241.531 947.821 163.821 928.684 160.628V160.628Z" fill="#AD263D"/>
<path d="M914.543 190.29C920.011 197.119 925.672 209.824 930.245 221.676C926.471 231.4 921.462 239.558 915.595 243.512C917.108 237.393 918.523 230.377 918.414 225.79C918.257 218.577 914.543 190.29 914.543 190.29V190.29Z" fill="#1E1240"/>
<path d="M999.27 275.983C999.028 253.966 986.338 240.458 978.826 231.326C974.58 226.168 970.418 222.092 967.588 217.998C966.366 216.233 965.906 213.679 965.749 211.421C945.511 215.9 933.486 233.057 925.829 231.227C904.974 267.837 866.179 274.344 862.55 303.6C859.731 326.352 874.792 381.19 877.961 382.844C881.494 384.694 895.054 385.601 898.623 381.603C904.163 375.368 896.941 315.143 896.941 315.143C896.941 315.143 948.063 292.411 949.164 292.542C950.156 292.658 937.394 422.379 951.341 459.326C953.809 465.865 969.559 463.507 973.273 463.48C979.297 463.445 997.624 409.437 984.027 364.589C979.951 351.157 999.318 279.247 999.27 275.983Z" fill="#231F20"/>
<path d="M998.508 279.965C1005.08 255.529 988.745 239.999 984.79 216.097C981.04 193.396 983.447 174.708 976.479 166.287C971.302 160.027 963.221 156.894 946.721 153.169C942.269 152.165 937.648 153.872 929.011 157.912C922.781 160.826 915.027 173.169 913.454 188.469C912.631 196.551 928.104 216.42 925.829 226.047C922.297 241.065 907.599 247.525 909.801 251.806C920.301 272.184 994.915 293.365 998.508 279.965Z" fill="#4B4647"/>
<path d="M849.884 199.286C849.884 199.286 840.412 195.257 836.783 198.783C833.154 202.31 833.457 208.455 834.569 209.16C835.247 209.593 837.896 211.277 839.203 210.169C840.509 209.06 840.908 207.549 840.908 207.549C840.908 207.549 840.57 210.269 841.949 210.572C843.328 210.874 842.735 208.455 843.739 207.448C844.743 206.441 847.864 208.657 849.884 207.045C851.904 205.433 849.884 199.286 849.884 199.286Z" fill="#AD263D"/>
<path d="M909.801 251.806C907.599 247.525 922.297 241.065 925.829 226.047C928.103 216.42 912.631 196.551 913.454 188.469C915.027 173.169 922.781 160.826 929.011 157.912C930.668 157.134 932.18 156.446 933.571 155.845C929.858 161.319 923.821 171.452 924.015 179.032C924.305 189.932 946.249 214.566 949.334 233.66C951.366 246.198 946.866 263.119 943.213 273.87C927.68 267.782 913.877 259.733 909.801 251.806Z" fill="white"/>
<path d="M909.788 249.877C927.437 238.992 956.748 220.137 972.958 205.503C972.958 205.503 962.712 239.558 936.365 257.845C932.034 260.854 928.429 263.36 925.405 265.459C917.929 261.147 912.195 256.456 909.8 251.806C909.486 251.211 909.522 250.572 909.788 249.877Z" fill="#1E1240"/>
<path d="M971.144 168.991C950.095 159.231 937.756 211.421 913.466 225.79C899.53 234.039 844.658 235.213 845.142 249.831C845.517 261.288 883.985 267.958 922.296 257.63C960.607 247.304 993.124 179.182 971.144 168.991Z" fill="#FF6161"/>
<path d="M947.507 129.864C947.507 129.864 950.471 122.63 959.761 123.284C969.039 123.939 963.342 138.114 967.612 139.88C971.882 141.645 971.18 136.645 974.858 139.569C978.523 142.494 974.35 155.978 962.374 152.895C950.386 149.811 947.507 129.864 947.507 129.864V129.864Z" fill="#4681A0"/>
<path d="M934.527 127.459C934.527 127.459 933.475 122.893 939.644 121.669C945.826 120.444 951.874 125.87 953.326 136.393C954.777 146.916 950.06 149.967 946.515 150.322C942.971 150.678 932.725 146.48 930.305 141.05C927.874 135.622 929.531 128.243 934.527 127.459Z" fill="#095571"/>
<path d="M935.748 141.682C935.542 141.226 935.422 140.747 935.325 140.26C935.131 139.333 934.647 138.002 933.401 138.955C931.599 140.341 932.869 145.219 935.24 145.131C936.994 145.067 936.244 142.828 935.748 141.682V141.682Z" fill="#FF6161"/>
<path d="M948.716 144.007L952.744 157.992C953.385 160.297 949.333 167.791 944.881 165.864C943.575 165.301 944.107 161.743 944.458 159.069L943.901 146.263L948.716 144.007V144.007Z" fill="#FF6161"/>
<path d="M944.24 153.869C946.998 152.121 948.777 146.775 948.777 146.775L943.986 148.091L944.24 153.869H944.24Z" fill="#311E69"/>
<path d="M946.249 135.02L948.571 140.174C950.41 144.262 948.838 149.244 944.797 151.166C941.059 152.941 936.644 151.718 934.696 146.913C932.966 142.642 935.059 137.975 935.652 135.67C936.983 130.412 943.152 129.286 946.249 135.02Z" fill="#FF6161"/>
<path d="M948.51 140.009C948.559 139.516 948.535 139.02 948.486 138.525C948.389 137.586 948.45 136.167 949.914 136.705C952.055 137.488 952.309 142.521 950.023 143.147C948.329 143.613 948.377 141.255 948.51 140.009Z" fill="#FF6161"/>
<path d="M943.116 144.024C943.116 144.024 940.951 144.813 937.757 144.761C937.757 144.761 938.773 146.93 940.092 147.509C941.422 148.089 942.632 146.553 943.116 144.024Z" fill="white"/>
<path d="M943.841 149.545C942.232 150.037 939.184 150.183 937.732 149.523C936.45 148.938 934.938 147.089 934.611 146.675C934.648 146.754 934.66 146.833 934.696 146.913C936.644 151.718 941.059 152.941 944.797 151.166C947.289 149.983 948.837 147.634 949.237 145.05C947.603 147.72 945.281 149.102 943.841 149.545Z" fill="#AD263D"/>
<path d="M922.297 257.63C887.046 267.134 851.65 262.243 845.94 252.475C853.973 254.4 886.949 254.326 908.518 252.252C930.897 250.101 939.934 240.634 958.237 218.527C971.676 202.285 975.027 182.535 975.862 173.191C987.088 191.235 957.075 248.254 922.297 257.63V257.63Z" fill="#AD263D"/>
<path d="M847.561 244.506C847.561 244.506 845.843 240.687 844.488 239.612C843.146 238.536 842.831 232.35 840.992 233.912C839.166 235.47 841.645 240.258 840.992 241.548C840.351 242.839 835.561 243.647 835.343 246.389C835.137 249.132 837.907 252.574 838.464 254.241C839.033 255.909 849.654 257.415 850.404 253.758C851.166 250.101 847.561 244.506 847.561 244.506Z" fill="#FF6161"/>
<path d="M432.418 483.122C443.364 454.009 535.77 504.672 535.743 559.554C535.721 599.587 489.817 623.09 469.389 623.517C464.2 623.622 457.834 612.838 457.254 611.726C454.395 606.239 499.039 581.859 492.491 558.461C483.782 527.352 425.137 502.484 432.418 483.122H432.418Z" fill="#095571"/>
<path d="M454.132 814.441C456.927 809.782 457.503 804.782 457.642 800.693L472.702 799.857C472.702 799.857 471.961 805.074 474.725 808.971C475.929 810.671 479.23 811.8 483.791 813.426C491.037 816.656 500.002 820.836 500.439 823.228C501.162 827.213 459.626 829.397 452.506 825.892C448.786 824.057 451.067 819.55 454.132 814.441Z" fill="#231F20"/>
<path d="M337.691 800.676C341.813 797.137 343.936 792.569 345.357 788.733L359.911 792.681C359.911 792.681 357.565 797.403 358.962 801.971C359.568 803.958 362.345 806.072 366.16 809.054C372.025 814.398 379.214 821.189 378.874 823.599C378.303 827.61 338.194 816.599 332.542 811.032C329.59 808.121 333.174 804.56 337.691 800.676H337.691Z" fill="#231F20"/>
<path d="M490.1 682.998C482.535 626.957 470.047 585.225 460.088 567.71C455.715 557.794 378.852 590.023 377.657 594.064C365.859 633.896 381.695 683.448 378.42 706.471C377.047 716.131 337.875 778.332 342.166 796.217C343.543 801.957 357.64 805.824 362.405 801.914C375.848 790.89 406.096 757.318 418.544 727.259C430.134 699.257 422.019 618.427 434.629 639.031C435.548 640.539 448.943 687.445 450.579 704.118C453.142 730.289 446.72 809.607 460.599 808.836C465.971 808.539 475.405 809.128 478.894 799.857C490.374 769.362 492.259 699.013 490.099 682.998H490.1Z" fill="#4B4647"/>
<path d="M429.872 636.467V636.459C429.872 636.459 416.247 631.756 416.359 665.336C416.473 698.918 404.068 724.317 390.465 743.318C376.86 762.317 348.296 801.735 348.296 801.735C348.296 801.735 351.248 802.441 355.557 803.461C358.321 803.631 360.857 803.186 362.406 801.914C375.849 790.89 406.096 757.318 418.544 727.259C428.207 703.913 424.173 643.851 429.872 636.467L429.872 636.467Z" fill="#231F20"/>
<path d="M478.894 799.857C490.374 769.362 492.259 699.013 490.1 682.998C483.882 636.951 474.346 600.577 465.617 579.349C464.989 579.919 464.366 580.569 463.747 581.31C449.685 598.109 467.291 635.696 471.29 662.507C475.293 689.314 471.29 744.12 471.692 764.92C471.945 777.997 470.929 796.134 470.144 807.799C473.723 806.787 477.098 804.63 478.894 799.857Z" fill="#231F20"/>
<path d="M359.253 496.647C363.051 484.416 383.548 474.108 396.123 471.061L396.136 471.109C414.088 465.908 440.209 471.161 449.122 474.521C473.994 483.897 465.099 558.309 470.413 578.107C471.076 579.707 485.639 622.227 486.52 624.176C480.938 632.68 470.631 641.044 451.647 641.414C449.104 641.466 436.874 612.393 433.974 612.82C433.722 612.855 421.984 644.758 421.984 644.758C421.984 644.758 377.762 650.577 366.657 647.09C365.941 616.875 373.917 582.329 374.27 580.713C382.375 543.327 352.491 518.407 359.253 496.647Z" fill="#4681A0"/>
<path d="M486.521 624.176C485.64 622.228 471.077 579.707 470.414 578.107C465.099 558.309 473.994 483.897 449.123 474.521C447.156 473.78 444.348 472.944 440.978 472.15C444.039 481.304 452.729 507.968 456.488 526.907C461.088 550.11 456.488 605.511 462.687 625.513C464.261 630.579 466.114 634.937 468.008 638.625C477.028 635.399 482.819 629.821 486.521 624.176Z" fill="#095571"/>
<path d="M419.56 463.974C422.878 463.999 426.148 464.827 429.153 466.31C430.6 467.02 432.279 467.897 434.048 468.916C439.25 471.907 445.878 475.885 445.176 480.459C444.475 485.035 437.176 501.608 437.176 501.608C437.176 501.608 443.864 490.126 445.97 493.604C448.076 497.079 434.194 545.624 431.76 546.614C429.331 547.608 401.574 512.653 400.24 508.717C398.909 504.781 405.765 506.307 405.765 506.307C405.765 506.307 386.378 488.287 387.381 482.804C388.332 477.626 393.259 463.743 419.56 463.974H419.56Z" fill="#095571"/>
<path d="M419.198 466.061C419.198 466.061 403.706 467.4 398.639 472.329C393.573 477.259 428.9 543.827 431.577 549.948C434.254 556.072 440.886 465.703 419.198 466.061Z" fill="white"/>
<path d="M400.03 452.627C400.03 452.627 396.324 450.665 398.224 446.79C400.126 442.911 404.434 441.651 404.434 441.651C404.434 441.651 403.243 438.496 407.08 436.673C410.922 434.851 412.474 437.912 412.474 437.912C412.474 437.912 413.442 437.196 414.065 437.806C414.685 438.421 414.031 440.422 414.031 440.422C414.031 440.422 419.916 440.618 418.975 444.834C418.517 446.873 415.056 449.475 411.232 451.366C412.125 455.826 409.078 464.396 406.23 463.053C399.995 460.116 400.03 452.627 400.03 452.627L400.03 452.627Z" fill="#1E1240"/>
<path d="M405.145 456.698L404.355 473.065C404.949 475.246 418.331 477.969 420.981 474.255C421.762 473.166 420.894 471.165 419.312 469.177L410.225 458.489L405.145 456.698V456.698Z" fill="#FF6161"/>
<path d="M412.051 460.638C409.54 460.887 406.096 461.187 406.096 461.187C406.096 461.187 407.382 464.941 411.529 466.868C413.721 467.887 415.989 468.031 417.986 467.617L412.051 460.638V460.638Z" fill="#311E69"/>
<path d="M406.893 450.212L405.904 459.554C405.825 462.652 408.219 465.268 411.32 465.428C413.796 465.564 415.313 465.241 418.23 464.24C420.663 463.402 421.43 460.73 420.729 457.46C419.821 453.219 417.777 449.572 416.573 447.679C413.835 443.368 407.983 444.171 406.893 450.212V450.212Z" fill="#FF6161"/>
<path d="M407.26 453.982C408.341 453.529 407.831 454.536 409.06 455.504C410.29 456.471 411.018 456.184 414.385 454.022C416.355 452.754 418.073 452.553 419.158 452.596C419.782 454.066 421.688 455.848 422.063 457.6C422.764 460.869 421.474 464.784 419.046 465.621C416.128 466.623 413.918 466.414 411.442 466.279C408.341 466.118 405.825 462.652 405.904 459.554L406.439 454.514C406.736 454.266 407.02 454.083 407.26 453.982Z" fill="#311E69"/>
<path d="M405.904 459.554L406.017 458.503C407.399 458.943 408.733 459.549 409.348 460.203C410.853 461.803 416.046 463.463 417.297 463.075C418.549 462.683 418.797 461.807 420.266 461.719C421.077 461.671 421.775 460.678 422.242 459.797C422.141 462.429 420.946 464.966 419.046 465.621C416.128 466.623 413.918 466.414 411.442 466.279C408.341 466.118 405.825 462.652 405.904 459.554Z" fill="#1E1240"/>
<path d="M413.966 455.979C413.966 455.979 416.09 455.522 418.606 453.878C418.606 453.878 419.535 455.587 418.776 456.712C418.012 457.836 415.618 457.753 413.966 455.979Z" fill="white"/>
<path d="M408.306 446.677C408.306 446.677 406.855 450.377 407.434 452.082C408.01 453.786 408.398 454.471 407.926 455.063C407.452 455.656 405.48 454.684 405.132 452.867C404.782 451.048 404.556 446.367 408.306 446.677Z" fill="#1E1240"/>
<path d="M407.046 454.719C406.697 454.253 406.423 453.743 406.178 453.215C405.716 452.208 404.796 450.822 403.64 452.243C401.966 454.31 404.727 459.527 407.399 458.79C409.383 458.241 407.926 455.892 407.046 454.719H407.046Z" fill="#FF6161"/>
<path d="M416.403 449.262L416.905 450.534C416.949 450.643 417.031 450.73 417.136 450.779C417.245 450.822 417.367 450.826 417.476 450.784L419.966 449.806C420.071 449.763 420.158 449.681 420.207 449.572C420.254 449.462 420.254 449.344 420.21 449.236L419.709 447.963C419.621 447.736 419.365 447.627 419.142 447.714L416.652 448.695L416.6 448.717C416.413 448.822 416.321 449.057 416.403 449.262H416.403ZM420.284 450.621L417.795 451.602C417.468 451.729 417.11 451.724 416.787 451.58C416.465 451.441 416.216 451.184 416.09 450.857L415.588 449.585C415.323 448.909 415.65 448.141 416.33 447.875L418.819 446.894C419.495 446.633 420.262 446.965 420.528 447.64L421.029 448.913C421.156 449.24 421.153 449.597 421.009 449.92C420.895 450.19 420.694 450.409 420.441 450.548C420.393 450.574 420.341 450.6 420.284 450.621L420.284 450.621Z" fill="#311E69"/>
<path d="M408.817 452.247L409.318 453.52C409.361 453.629 409.445 453.713 409.553 453.76C409.657 453.808 409.78 453.808 409.889 453.769L413.591 452.313C413.695 452.27 413.787 452.183 413.831 452.078C413.879 451.969 413.879 451.851 413.835 451.743L413.339 450.469C413.247 450.243 412.994 450.133 412.766 450.221L409.065 451.677L409.013 451.703C408.82 451.807 408.738 452.039 408.817 452.247V452.247ZM413.91 453.128L410.207 454.584C409.88 454.715 409.523 454.707 409.2 454.566C408.877 454.427 408.629 454.165 408.502 453.838L407.997 452.566C407.735 451.89 408.062 451.123 408.742 450.861L412.445 449.405C413.12 449.14 413.888 449.471 414.153 450.146L414.655 451.42C414.785 451.746 414.777 452.104 414.637 452.427C414.519 452.697 414.323 452.914 414.07 453.054C414.018 453.08 413.965 453.107 413.909 453.128H413.91Z" fill="#311E69"/>
<path d="M416.106 450.478L416.391 449.646C415.837 449.453 414.551 449.423 413.639 450.687L414.354 451.202C415.087 450.181 416.002 450.443 416.106 450.478H416.106Z" fill="#311E69"/>
<path d="M387.346 488.941C368.637 464.086 295.629 537.307 306.032 589.871C316.732 643.921 367.625 637.766 387.346 632.423C392.356 631.066 395.422 618.927 395.666 617.694C396.865 611.622 347.328 600.803 346.849 576.512C346.439 555.832 399.786 505.47 387.346 488.941Z" fill="#4681A0"/>
<path d="M395.666 617.694C396.865 611.622 347.328 600.8 346.849 576.512C346.499 558.935 384.97 519.929 388.894 498.465C377.222 510.945 357.353 529.378 343.839 546.635C332.377 561.277 330.973 577.444 341.838 596.378C347.41 606.09 375.818 617.223 395.435 618.661C395.556 618.191 395.636 617.855 395.666 617.694V617.694Z" fill="#095571"/>
<path d="M388.938 622.75C388.859 622.136 388.925 621.521 389.09 620.949C389.326 620.152 389.623 618.962 389.483 618.365C389.261 617.419 389.239 614.176 390.145 613.649C391.048 613.121 401.695 608.397 402.48 609.896C403.27 611.396 396.979 614.952 396.979 614.952C396.979 614.952 402.721 612.023 403.488 615.083C404.26 618.147 401.61 622.833 401.19 625.118C400.771 627.397 397.903 629.546 395.539 629.62C393.281 629.685 389.793 629.768 388.938 622.75Z" fill="#FF6161"/>
<path d="M802.229 137.46H867.911V106.904H802.229V137.46Z" fill="#FAFAFA"/>
<path d="M385.932 357.403H451.614V326.847H385.932V357.403Z" fill="#FAFAFA"/>
<path d="M315.34 321.807H381.022V291.25H315.34V321.807Z" fill="#FAFAFA"/>
<path d="M385.932 321.807H451.614V291.25H385.932V321.807Z" fill="#FAFAFA"/>
<path d="M886.604 77.4652H952.285V46.9091H886.604V77.4652Z" fill="#FAFAFA"/>
<path d="M519.167 712.215H570.395V688.383H519.167V712.215Z" fill="#FAFAFA"/>
<path d="M585.277 681.898H636.505V658.065H585.277V681.898Z" fill="#FAFAFA"/>
<path d="M329.653 138.186H395.339V107.629H329.653V138.186Z" fill="#FAFAFA"/>
<path d="M259.473 138.186H325.154V107.629H259.473V138.186Z" fill="#FAFAFA"/>
<path d="M292.313 102.536H357.996V71.9803H292.313V102.536Z" fill="#FAFAFA"/>
<path d="M309.927 274.611H375.613V244.055H309.927V274.611Z" fill="#FAFAFA"/>
<path d="M1090.65 215.543H1024.96V184.987H1090.65V215.543Z" fill="#FAFAFA"/>
<path d="M1161.24 179.947H1095.56V149.391H1161.24V179.947Z" fill="#FAFAFA"/>
<path d="M1090.65 179.947H1024.96V149.391H1090.65V179.947Z" fill="#FAFAFA"/>
<path d="M103.02 136.293H168.701V105.737H103.02V136.293Z" fill="#FAFAFA"/>
<path d="M115.78 423.998H181.462V393.442H115.78V423.998Z" fill="#FAFAFA"/>
<path d="M110.368 376.803H176.053V346.247H110.368V376.803Z" fill="#FAFAFA"/>
</svg>
