<svg width="28" height="28" viewBox="0 0 40 40" fill="none" xmlns="http://www.w3.org/2000/svg">
<rect width="40" height="40" rx="5" fill="#EA492C"/>
<path d="M30 12H26.9C26.6679 10.8714 26.0538 9.85735 25.1613 9.12872C24.2687 8.40009 23.1522 8.00145 22 8L20 8C18.8478 8.00145 17.7313 8.40009 16.8387 9.12872C15.9462 9.85735 15.3321 10.8714 15.1 12H12C11.7348 12 11.4804 12.1054 11.2929 12.2929C11.1054 12.4804 11 12.7348 11 13C11 13.2652 11.1054 13.5196 11.2929 13.7071C11.4804 13.8946 11.7348 14 12 14H13V27C13.0016 28.3256 13.5289 29.5964 14.4662 30.5338C15.4036 31.4711 16.6744 31.9984 18 32H24C25.3256 31.9984 26.5964 31.4711 27.5338 30.5338C28.4711 29.5964 28.9984 28.3256 29 27V14H30C30.2652 14 30.5196 13.8946 30.7071 13.7071C30.8946 13.5196 31 13.2652 31 13C31 12.7348 30.8946 12.4804 30.7071 12.2929C30.5196 12.1054 30.2652 12 30 12V12ZM20 10H22C22.6203 10.0008 23.2251 10.1934 23.7316 10.5514C24.2381 10.9095 24.6214 11.4155 24.829 12H17.171C17.3786 11.4155 17.7619 10.9095 18.2684 10.5514C18.7749 10.1934 19.3797 10.0008 20 10V10ZM27 27C27 27.7956 26.6839 28.5587 26.1213 29.1213C25.5587 29.6839 24.7956 30 24 30H18C17.2044 30 16.4413 29.6839 15.8787 29.1213C15.3161 28.5587 15 27.7956 15 27V14H27V27Z" fill="#FAFAFA"/>
<path d="M19 26C19.2652 26 19.5196 25.8946 19.7071 25.7071C19.8946 25.5196 20 25.2652 20 25V19C20 18.7348 19.8946 18.4804 19.7071 18.2929C19.5196 18.1054 19.2652 18 19 18C18.7348 18 18.4804 18.1054 18.2929 18.2929C18.1054 18.4804 18 18.7348 18 19V25C18 25.2652 18.1054 25.5196 18.2929 25.7071C18.4804 25.8946 18.7348 26 19 26Z" fill="#FAFAFA"/>
<path d="M23 26C23.2652 26 23.5196 25.8946 23.7071 25.7071C23.8946 25.5196 24 25.2652 24 25V19C24 18.7348 23.8946 18.4804 23.7071 18.2929C23.5196 18.1054 23.2652 18 23 18C22.7348 18 22.4804 18.1054 22.2929 18.2929C22.1054 18.4804 22 18.7348 22 19V25C22 25.2652 22.1054 25.5196 22.2929 25.7071C22.4804 25.8946 22.7348 26 23 26Z" fill="#FAFAFA"/>
</svg>
